krzyż;98
katolicki;79
ksiądz;68
wiara;51
msza;44
modlitwa;37
mariacki;36
Bóg;35
religia;35
budynek;26
wieża;16
świątynia;14
kaplica;13
święty;9
katolicyzm;8
drewniany;7
niedziela;7
papież;7
ksiadz;6
duży;5
katolik;5
krzyz;5
nuda;5
cerkiew;4
chrześcijaństwo;4
dom;4
katedra;4
parafia;4
stary;4
Szatan;4
wierni;4
zło;4
ateizm;3
kler;3
ludzie;3
miejsce;3
nie;3
ołtarz;3
wspólnota;3
wyznanie;3
zabobon;3
zły;3
ateista;2
bazylika;2
biały;2
budowla;2
cisza;2
dach;2
drewno;2
ewangelicki;2
gotycki;2
grzech;2
Jezus;2
kłamstwo;2
ksiądź;2
mały;2
meczet;2
nawa;2
pieniadze;2
pieniądze;2
pleban;2
polski;2
sekta;2
swiatynia;2
tak;2
wysoki;2
zabobony;2
zabytek;2
złodzieje;2