ksiądz;380
parafia;113
kościół;82
parafii;30
plebania;30
ksiadz;24
wikary;8
złodziej;7
kapłan;6
grubas;5
pedofil;5
pieniądze;5
pleban;5
religia;5
kosciol;4
gruby;3
kosciół;3
kościól;3
ksiądź;3
ksiąz;3
sutanna;3
wiara;3
wieś;3
czarny;2
człowiek;2
dzieci;2
kapelan;2
kazanie;2
klecha;2
krzyż;2
ksiądz];2
na parafii;2
władza;2
zło;2
