﻿bogata;190
dom;115
pełna;75
wieś;56
wuja Toma;42
wiejska;27
drewniana;26
wolna;26
domek;21
strzecha;11
drewno;9
wuja;9
puchatka;7
drwala;6
góry;6
kurna;6
mała;6
puchatek;6
za wsią;6
góralska;5
słoma;5
wies;5
wuja freda;5
bogactwo;4
komin;4
Polska;4
stara;4
wuj;4
wuj tom;4
chłop;3
drwal;3
las;3
piernik;3
pusta;3
Toma;3
wuja sama;3
chłopska;2
moja;2
puchata;2
Tatry;2
Tom;2
z drewna;2
