﻿miasto;273
mała;37
dom;24
pole;22
spokój;21
spokojna;14
chata;12
wioska;12
Polska;11
krowa;8
łąka;8
Warszawa;8
wiocha;8
krowy;7
las;7
stara;7
wieśniak;7
babcia;6
miasteczko;6
siano;6
duża;5
miejscowość;5
moja;5
rolnictwo;5
domek;4
droga;4
odpoczynek;4
pola;4
prowincja;4
rodzina;4
rzeka;4
sielanka;4
spokoj;4
trawa;4
wakacje;4
wesoła;4
chatka;3
chłop;3
cisza;3
lato;3
małą;3
miejsce;3
natura;3
nuda;3
smród;3
stodoła;3
zabita dechami;3
zwierzęta;3
błoto;2
chłopi;2
cześć;2
czysta;2
dolina;2
domki;2
farma;2
gospodarstwo;2
jajka;2
kiełbasa;2
ludzie;2
maisto;2
nasza;2
osada;2
płot;2
przyroda;2
pustka;2
rolnik;2
sielska;2
sołtys;2
strzecha;2
wolność;2
zadupie;2
zagroda;2
zieleń;2
